^C:\USERS\BAIN\SOURCE\REPOS\WINDOWSPROJECT1\WINDOWSPROJECT1\X64\DEBUG\STDAFX.OBJ|C:\USERS\BAIN\SOURCE\REPOS\WINDOWSPROJECT1\WINDOWSPROJECT1\X64\DEBUG\WINDOWSPROJECT1.OBJ|C:\USERS\BAIN\SOURCE\REPOS\WINDOWSPROJECT1\WINDOWSPROJECT1\X64\DEBUG\WINDOWSPROJECT1.RES
/OUT:"C:\USERS\BAIN\SOURCE\REPOS\WINDOWSPROJECT1\X64\DEBUG\WINDOWSPROJECT1.EXE" /INCREMENTAL /NOLOGO KERNEL32.LIB USER32.LIB GDI32.LIB WINSPOOL.LIB COMDLG32.LIB ADVAPI32.LIB SHELL32.LIB OLE32.LIB OLEAUT32.LIB UUID.LIB ODBC32.LIB ODBCCP32.LIB /MANIFEST /MANIFESTUAC:"level='asInvoker' uiAccess='false'" /manifest:embed /DEBUG:FASTLINK /PDB:"C:\USERS\BAIN\SOURCE\REPOS\WINDOWSPROJECT1\X64\DEBUG\WINDOWSPROJECT1.PDB" /SUBSYSTEM:WINDOWS /TLBID:1 /DYNAMICBASE /NXCOMPAT /IMPLIB:"C:\USERS\BAIN\SOURCE\REPOS\WINDOWSPROJECT1\X64\DEBUG\WINDOWSPROJECT1.LIB" /MACHINE:X64 X64\DEBUG\WINDOWSPROJECT1.RESX64\DEBUG\STDAFX.OBJX64\DEBUG\WINDOWSPROJECT1.OBJ
^C:\USERS\BAIN\SOURCE\REPOS\WINDOWS-TEST\WINDOWSPROJECT1\X64\DEBUG\STDAFX.OBJ|C:\USERS\BAIN\SOURCE\REPOS\WINDOWS-TEST\WINDOWSPROJECT1\X64\DEBUG\WINDOWSPROJECT1.OBJ|C:\USERS\BAIN\SOURCE\REPOS\WINDOWS-TEST\WINDOWSPROJECT1\X64\DEBUG\WINDOWSPROJECT1.RES
/OUT:"C:\USERS\BAIN\SOURCE\REPOS\WINDOWS-TEST\X64\DEBUG\WINDOWSPROJECT1.EXE" /INCREMENTAL /NOLOGO KERNEL32.LIB USER32.LIB GDI32.LIB WINSPOOL.LIB COMDLG32.LIB ADVAPI32.LIB SHELL32.LIB OLE32.LIB OLEAUT32.LIB UUID.LIB ODBC32.LIB ODBCCP32.LIB /MANIFEST /MANIFESTUAC:"level='asInvoker' uiAccess='false'" /manifest:embed /DEBUG:FASTLINK /PDB:"C:\USERS\BAIN\SOURCE\REPOS\WINDOWS-TEST\X64\DEBUG\WINDOWSPROJECT1.PDB" /SUBSYSTEM:WINDOWS /TLBID:1 /DYNAMICBASE /NXCOMPAT /IMPLIB:"C:\USERS\BAIN\SOURCE\REPOS\WINDOWS-TEST\X64\DEBUG\WINDOWSPROJECT1.LIB" /MACHINE:X64 X64\DEBUG\WINDOWSPROJECT1.RESX64\DEBUG\STDAFX.OBJX64\DEBUG\WINDOWSPROJECT1.OBJ
