^C:\USERS\BAIN\SOURCE\REPOS\WINDOWSPROJECT1\WINDOWSPROJECT1\WINDOWSPROJECT1.RC
/D _UNICODE /D UNICODE /l"0x0409" /nologo /fo"X64\DEBUG\WINDOWSPROJECT1.RES"   C:\USERS\BAIN\SOURCE\REPOS\WINDOWSPROJECT1\WINDOWSPROJECT1\WINDOWSPROJECT1.RC
^C:\USERS\BAIN\SOURCE\REPOS\WINDOWS-TEST\WINDOWSPROJECT1\WINDOWSPROJECT1.RC
/D _UNICODE /D UNICODE /l"0x0409" /nologo /fo"X64\DEBUG\WINDOWSPROJECT1.RES"   C:\USERS\BAIN\SOURCE\REPOS\WINDOWS-TEST\WINDOWSPROJECT1\WINDOWSPROJECT1.RC
